<svg xmlns="http://www.w3.org/2000/svg" xmlns:xlink="http://www.w3.org/1999/xlink" width="1024" height="1024" viewBox="0 0 1024 1024">
  <defs>
    <clipPath id="clip-icon">
      <rect width="1024" height="1024"/>
    </clipPath>
  </defs>
  <g id="icon" clip-path="url(#clip-icon)">
    <rect width="1024" height="1024" fill="#1c72fd"/>
    <g id="Grupo_43" data-name="Grupo 43">
      <text id="Leva" transform="translate(152 772)" fill="#fff" font-size="337" font-family="Quicksand-Bold, Quicksand" font-weight="700" letter-spacing="-0.061em"><tspan x="0" y="0">Leva</tspan></text>
      <text id="Uai" transform="translate(167 557)" fill="#fff" font-size="487" font-family="Quicksand-Bold, Quicksand" font-weight="700" letter-spacing="-0.061em"><tspan x="0" y="0">Uai</tspan></text>
    </g>
  </g>
</svg>
