{
  "prepare_queue": {
    "installed": [],
    "uninstalled": []
  },
  "config_munge": {
    "files": {
      "config.xml": {
        "parents": {
          "/*": [
            {
              "xml": "<feature name=\"Device\"><param name=\"browser-package\" value=\"Device\" /></feature>",
              "count": 1
            },
            {
              "xml": "<feature name=\"EmailComposer\"><param name=\"browser-package\" value=\"de.appplant.cordova.emailcomposer.EmailComposer\" /></feature>",
              "count": 1
            },
            {
              "xml": "<feature name=\"FileOpener2\"><param name=\"browser-package\" value=\"FileOpener2\" /></feature>",
              "count": 1
            },
            {
              "xml": "<feature name=\"NativeStorage\"><param name=\"browser-package\" value=\"NativeStorage\" /></feature>",
              "count": 1
            },
            {
              "xml": "<feature name=\"CordovaHttpPlugin\"><param name=\"browser-package\" value=\"CordovaHttpPlugin\" /></feature>",
              "count": 1
            },
            {
              "xml": "<feature name=\"FacebookConnectPlugin\"><param name=\"browser-package\" value=\"FacebookConnectPluginBrowser\" /><param name=\"onload\" value=\"true\" /></feature>",
              "count": 1
            },
            {
              "xml": "<plugin name=\"FacebookConnectPlugin\" value=\"FacebookConnectPlugin\" />",
              "count": 1
            },
            {
              "xml": "<access origin=\"https://m.facebook.com\" />",
              "count": 1
            },
            {
              "xml": "<access origin=\"https://connect.facebook.net\" />",
              "count": 1
            },
            {
              "xml": "<access origin=\"https://graph.facebook.com\" />",
              "count": 1
            },
            {
              "xml": "<access origin=\"https://api.facebook.com\" />",
              "count": 1
            },
            {
              "xml": "<access origin=\"https://*.fbcdn.net\" />",
              "count": 1
            },
            {
              "xml": "<access origin=\"https://*.akamaihd.net\" />",
              "count": 1
            }
          ]
        }
      }
    }
  },
  "installed_plugins": {
    "cordova-plugin-whitelist": {
      "PACKAGE_NAME": "br.com.uaileva"
    },
    "cordova-plugin-statusbar": {
      "PACKAGE_NAME": "br.com.uaileva"
    },
    "cordova-plugin-device": {
      "PACKAGE_NAME": "br.com.uaileva"
    },
    "cordova-plugin-splashscreen": {
      "PACKAGE_NAME": "br.com.uaileva"
    },
    "cordova-plugin-ionic-webview": {
      "PACKAGE_NAME": "br.com.uaileva"
    },
    "cordova-plugin-ionic-keyboard": {
      "PACKAGE_NAME": "br.com.uaileva"
    },
    "cordova-plugin-email-composer": {
      "PACKAGE_NAME": "br.com.uaileva"
    },
    "cordova-plugin-file-opener2": {
      "PACKAGE_NAME": "br.com.uaileva"
    },
    "cordova-plugin-file": {
      "PACKAGE_NAME": "br.com.uaileva"
    },
    "cordova-plugin-network-information": {
      "PACKAGE_NAME": "br.com.uaileva"
    },
    "cordova-plugin-nativestorage": {
      "PACKAGE_NAME": "br.com.uaileva"
    },
    "cordova-sqlite-storage": {
      "PACKAGE_NAME": "br.com.uaileva"
    },
    "cordova-plugin-x-toast": {
      "PACKAGE_NAME": "br.com.uaileva"
    },
    "cordova-pdf-generator": {
      "PACKAGE_NAME": "br.com.uaileva"
    },
    "cordova-plugin-advanced-http": {
      "PACKAGE_NAME": "br.com.uaileva"
    },
    "cordova-plugin-inappbrowser": {
      "PACKAGE_NAME": "br.com.uaileva"
    },
    "cordova-plugin-googlemaps": {
      "PACKAGE_NAME": "br.com.uaileva"
    },
    "cordova-plugin-geolocation": {
      "GPS_REQUIRED": "true",
      "PACKAGE_NAME": "br.com.uaileva"
    },
    "cordova-plugin-facebook4": {
      "APP_ID": "1264204867275164",
      "APP_NAME": "UaiLeva",
      "FACEBOOK_HYBRID_APP_EVENTS": "false",
      "FACEBOOK_ANDROID_SDK_VERSION": "5.13.0",
      "PACKAGE_NAME": "br.com.uaileva"
    }
  },
  "dependent_plugins": {},
  "modules": [
    {
      "file": "plugins/cordova-plugin-statusbar/www/statusbar.js",
      "id": "cordova-plugin-statusbar.statusbar",
      "pluginId": "cordova-plugin-statusbar",
      "clobbers": [
        "window.StatusBar"
      ]
    },
    {
      "file": "plugins/cordova-plugin-statusbar/src/browser/StatusBarProxy.js",
      "id": "cordova-plugin-statusbar.StatusBarProxy",
      "pluginId": "cordova-plugin-statusbar",
      "runs": true
    },
    {
      "file": "plugins/cordova-plugin-device/www/device.js",
      "id": "cordova-plugin-device.device",
      "pluginId": "cordova-plugin-device",
      "clobbers": [
        "device"
      ]
    },
    {
      "file": "plugins/cordova-plugin-device/src/browser/DeviceProxy.js",
      "id": "cordova-plugin-device.DeviceProxy",
      "pluginId": "cordova-plugin-device",
      "runs": true
    },
    {
      "file": "plugins/cordova-plugin-splashscreen/www/splashscreen.js",
      "id": "cordova-plugin-splashscreen.SplashScreen",
      "pluginId": "cordova-plugin-splashscreen",
      "clobbers": [
        "navigator.splashscreen"
      ]
    },
    {
      "file": "plugins/cordova-plugin-splashscreen/src/browser/SplashScreenProxy.js",
      "id": "cordova-plugin-splashscreen.SplashScreenProxy",
      "pluginId": "cordova-plugin-splashscreen",
      "runs": true
    },
    {
      "file": "plugins/cordova-plugin-ionic-webview/src/www/util.js",
      "id": "cordova-plugin-ionic-webview.IonicWebView",
      "pluginId": "cordova-plugin-ionic-webview",
      "clobbers": [
        "Ionic.WebView"
      ]
    },
    {
      "file": "plugins/cordova-plugin-email-composer/www/email_composer.js",
      "id": "cordova-plugin-email-composer.EmailComposer",
      "pluginId": "cordova-plugin-email-composer",
      "clobbers": [
        "cordova.plugins.email"
      ]
    },
    {
      "file": "plugins/cordova-plugin-email-composer/src/browser/EmailComposerProxy.js",
      "id": "cordova-plugin-email-composer.EmailComposerProxy",
      "pluginId": "cordova-plugin-email-composer",
      "runs": true
    },
    {
      "file": "plugins/cordova-plugin-file-opener2/www/plugins.FileOpener2.js",
      "id": "cordova-plugin-file-opener2.FileOpener2",
      "pluginId": "cordova-plugin-file-opener2",
      "clobbers": [
        "cordova.plugins.fileOpener2"
      ]
    },
    {
      "file": "plugins/cordova-plugin-file-opener2/www/browser/isChrome.js",
      "id": "cordova-plugin-file-opener2.isChrome",
      "pluginId": "cordova-plugin-file-opener2",
      "runs": true
    },
    {
      "file": "plugins/cordova-plugin-file-opener2/src/browser/FileSaver.min.js",
      "id": "cordova-plugin-file-opener2.FileSaver",
      "pluginId": "cordova-plugin-file-opener2",
      "clobbers": [
        "FileSaver"
      ]
    },
    {
      "file": "plugins/cordova-plugin-file-opener2/src/browser/FileOpener2.js",
      "id": "cordova-plugin-file-opener2.FileOpener2Proxy",
      "pluginId": "cordova-plugin-file-opener2",
      "runs": true
    },
    {
      "file": "plugins/cordova-plugin-file/www/DirectoryEntry.js",
      "id": "cordova-plugin-file.DirectoryEntry",
      "pluginId": "cordova-plugin-file",
      "clobbers": [
        "window.DirectoryEntry"
      ]
    },
    {
      "file": "plugins/cordova-plugin-file/www/DirectoryReader.js",
      "id": "cordova-plugin-file.DirectoryReader",
      "pluginId": "cordova-plugin-file",
      "clobbers": [
        "window.DirectoryReader"
      ]
    },
    {
      "file": "plugins/cordova-plugin-file/www/Entry.js",
      "id": "cordova-plugin-file.Entry",
      "pluginId": "cordova-plugin-file",
      "clobbers": [
        "window.Entry"
      ]
    },
    {
      "file": "plugins/cordova-plugin-file/www/File.js",
      "id": "cordova-plugin-file.File",
      "pluginId": "cordova-plugin-file",
      "clobbers": [
        "window.File"
      ]
    },
    {
      "file": "plugins/cordova-plugin-file/www/FileEntry.js",
      "id": "cordova-plugin-file.FileEntry",
      "pluginId": "cordova-plugin-file",
      "clobbers": [
        "window.FileEntry"
      ]
    },
    {
      "file": "plugins/cordova-plugin-file/www/FileError.js",
      "id": "cordova-plugin-file.FileError",
      "pluginId": "cordova-plugin-file",
      "clobbers": [
        "window.FileError"
      ]
    },
    {
      "file": "plugins/cordova-plugin-file/www/FileReader.js",
      "id": "cordova-plugin-file.FileReader",
      "pluginId": "cordova-plugin-file",
      "clobbers": [
        "window.FileReader"
      ]
    },
    {
      "file": "plugins/cordova-plugin-file/www/FileSystem.js",
      "id": "cordova-plugin-file.FileSystem",
      "pluginId": "cordova-plugin-file",
      "clobbers": [
        "window.FileSystem"
      ]
    },
    {
      "file": "plugins/cordova-plugin-file/www/FileUploadOptions.js",
      "id": "cordova-plugin-file.FileUploadOptions",
      "pluginId": "cordova-plugin-file",
      "clobbers": [
        "window.FileUploadOptions"
      ]
    },
    {
      "file": "plugins/cordova-plugin-file/www/FileUploadResult.js",
      "id": "cordova-plugin-file.FileUploadResult",
      "pluginId": "cordova-plugin-file",
      "clobbers": [
        "window.FileUploadResult"
      ]
    },
    {
      "file": "plugins/cordova-plugin-file/www/FileWriter.js",
      "id": "cordova-plugin-file.FileWriter",
      "pluginId": "cordova-plugin-file",
      "clobbers": [
        "window.FileWriter"
      ]
    },
    {
      "file": "plugins/cordova-plugin-file/www/Flags.js",
      "id": "cordova-plugin-file.Flags",
      "pluginId": "cordova-plugin-file",
      "clobbers": [
        "window.Flags"
      ]
    },
    {
      "file": "plugins/cordova-plugin-file/www/LocalFileSystem.js",
      "id": "cordova-plugin-file.LocalFileSystem",
      "pluginId": "cordova-plugin-file",
      "clobbers": [
        "window.LocalFileSystem"
      ],
      "merges": [
        "window"
      ]
    },
    {
      "file": "plugins/cordova-plugin-file/www/Metadata.js",
      "id": "cordova-plugin-file.Metadata",
      "pluginId": "cordova-plugin-file",
      "clobbers": [
        "window.Metadata"
      ]
    },
    {
      "file": "plugins/cordova-plugin-file/www/ProgressEvent.js",
      "id": "cordova-plugin-file.ProgressEvent",
      "pluginId": "cordova-plugin-file",
      "clobbers": [
        "window.ProgressEvent"
      ]
    },
    {
      "file": "plugins/cordova-plugin-file/www/fileSystems.js",
      "id": "cordova-plugin-file.fileSystems",
      "pluginId": "cordova-plugin-file"
    },
    {
      "file": "plugins/cordova-plugin-file/www/requestFileSystem.js",
      "id": "cordova-plugin-file.requestFileSystem",
      "pluginId": "cordova-plugin-file",
      "clobbers": [
        "window.requestFileSystem"
      ]
    },
    {
      "file": "plugins/cordova-plugin-file/www/resolveLocalFileSystemURI.js",
      "id": "cordova-plugin-file.resolveLocalFileSystemURI",
      "pluginId": "cordova-plugin-file",
      "merges": [
        "window"
      ]
    },
    {
      "file": "plugins/cordova-plugin-file/www/browser/isChrome.js",
      "id": "cordova-plugin-file.isChrome",
      "pluginId": "cordova-plugin-file",
      "runs": true
    },
    {
      "file": "plugins/cordova-plugin-file/www/browser/Preparing.js",
      "id": "cordova-plugin-file.Preparing",
      "pluginId": "cordova-plugin-file",
      "runs": true
    },
    {
      "file": "plugins/cordova-plugin-file/src/browser/FileProxy.js",
      "id": "cordova-plugin-file.browserFileProxy",
      "pluginId": "cordova-plugin-file",
      "runs": true
    },
    {
      "file": "plugins/cordova-plugin-file/www/fileSystemPaths.js",
      "id": "cordova-plugin-file.fileSystemPaths",
      "pluginId": "cordova-plugin-file",
      "merges": [
        "cordova"
      ],
      "runs": true
    },
    {
      "file": "plugins/cordova-plugin-file/www/browser/FileSystem.js",
      "id": "cordova-plugin-file.firefoxFileSystem",
      "pluginId": "cordova-plugin-file",
      "merges": [
        "window.FileSystem"
      ]
    },
    {
      "file": "plugins/cordova-plugin-network-information/www/network.js",
      "id": "cordova-plugin-network-information.network",
      "pluginId": "cordova-plugin-network-information",
      "clobbers": [
        "navigator.connection",
        "navigator.network.connection"
      ]
    },
    {
      "file": "plugins/cordova-plugin-network-information/www/Connection.js",
      "id": "cordova-plugin-network-information.Connection",
      "pluginId": "cordova-plugin-network-information",
      "clobbers": [
        "Connection"
      ]
    },
    {
      "file": "plugins/cordova-plugin-network-information/src/browser/network.js",
      "id": "cordova-plugin-network-information.NetworkInfoProxy",
      "pluginId": "cordova-plugin-network-information",
      "runs": true
    },
    {
      "file": "plugins/cordova-plugin-nativestorage/www/mainHandle.js",
      "id": "cordova-plugin-nativestorage.mainHandle",
      "pluginId": "cordova-plugin-nativestorage",
      "clobbers": [
        "NativeStorage"
      ]
    },
    {
      "file": "plugins/cordova-plugin-nativestorage/www/LocalStorageHandle.js",
      "id": "cordova-plugin-nativestorage.LocalStorageHandle",
      "pluginId": "cordova-plugin-nativestorage"
    },
    {
      "file": "plugins/cordova-plugin-nativestorage/www/NativeStorageError.js",
      "id": "cordova-plugin-nativestorage.NativeStorageError",
      "pluginId": "cordova-plugin-nativestorage"
    },
    {
      "file": "plugins/cordova-sqlite-storage/www/SQLitePlugin.js",
      "id": "cordova-sqlite-storage.SQLitePlugin",
      "pluginId": "cordova-sqlite-storage",
      "clobbers": [
        "SQLitePlugin"
      ]
    },
    {
      "file": "plugins/cordova-sqlite-storage/node_modules/cordova-sqlite-storage-dependencies/sql-asm-memory-growth.js",
      "id": "cordova-sqlite-storage.sql",
      "pluginId": "cordova-sqlite-storage",
      "runs": true
    },
    {
      "file": "plugins/cordova-sqlite-storage/src/browser/SQLiteProxy.js",
      "id": "cordova-sqlite-storage.SQLiteProxy",
      "pluginId": "cordova-sqlite-storage",
      "runs": true
    },
    {
      "file": "plugins/cordova-plugin-x-toast/www/Toast.js",
      "id": "cordova-plugin-x-toast.Toast",
      "pluginId": "cordova-plugin-x-toast",
      "clobbers": [
        "window.plugins.toast"
      ]
    },
    {
      "file": "plugins/cordova-pdf-generator/www/pdf.js",
      "id": "cordova-pdf-generator.pdf",
      "pluginId": "cordova-pdf-generator",
      "clobbers": [
        "cordova.plugins.pdf",
        "pugin.pdf",
        "pdf"
      ]
    },
    {
      "file": "plugins/cordova-plugin-advanced-http/www/cookie-handler.js",
      "id": "cordova-plugin-advanced-http.cookie-handler",
      "pluginId": "cordova-plugin-advanced-http"
    },
    {
      "file": "plugins/cordova-plugin-advanced-http/www/dependency-validator.js",
      "id": "cordova-plugin-advanced-http.dependency-validator",
      "pluginId": "cordova-plugin-advanced-http"
    },
    {
      "file": "plugins/cordova-plugin-advanced-http/www/error-codes.js",
      "id": "cordova-plugin-advanced-http.error-codes",
      "pluginId": "cordova-plugin-advanced-http"
    },
    {
      "file": "plugins/cordova-plugin-advanced-http/www/global-configs.js",
      "id": "cordova-plugin-advanced-http.global-configs",
      "pluginId": "cordova-plugin-advanced-http"
    },
    {
      "file": "plugins/cordova-plugin-advanced-http/www/helpers.js",
      "id": "cordova-plugin-advanced-http.helpers",
      "pluginId": "cordova-plugin-advanced-http"
    },
    {
      "file": "plugins/cordova-plugin-advanced-http/www/js-util.js",
      "id": "cordova-plugin-advanced-http.js-util",
      "pluginId": "cordova-plugin-advanced-http"
    },
    {
      "file": "plugins/cordova-plugin-advanced-http/www/local-storage-store.js",
      "id": "cordova-plugin-advanced-http.local-storage-store",
      "pluginId": "cordova-plugin-advanced-http"
    },
    {
      "file": "plugins/cordova-plugin-advanced-http/www/lodash.js",
      "id": "cordova-plugin-advanced-http.lodash",
      "pluginId": "cordova-plugin-advanced-http"
    },
    {
      "file": "plugins/cordova-plugin-advanced-http/www/messages.js",
      "id": "cordova-plugin-advanced-http.messages",
      "pluginId": "cordova-plugin-advanced-http"
    },
    {
      "file": "plugins/cordova-plugin-advanced-http/www/ponyfills.js",
      "id": "cordova-plugin-advanced-http.ponyfills",
      "pluginId": "cordova-plugin-advanced-http"
    },
    {
      "file": "plugins/cordova-plugin-advanced-http/www/public-interface.js",
      "id": "cordova-plugin-advanced-http.public-interface",
      "pluginId": "cordova-plugin-advanced-http"
    },
    {
      "file": "plugins/cordova-plugin-advanced-http/www/umd-tough-cookie.js",
      "id": "cordova-plugin-advanced-http.tough-cookie",
      "pluginId": "cordova-plugin-advanced-http"
    },
    {
      "file": "plugins/cordova-plugin-advanced-http/www/url-util.js",
      "id": "cordova-plugin-advanced-http.url-util",
      "pluginId": "cordova-plugin-advanced-http"
    },
    {
      "file": "plugins/cordova-plugin-advanced-http/www/advanced-http.js",
      "id": "cordova-plugin-advanced-http.http",
      "pluginId": "cordova-plugin-advanced-http",
      "clobbers": [
        "cordova.plugin.http"
      ]
    },
    {
      "file": "plugins/cordova-plugin-advanced-http/src/browser/cordova-http-plugin.js",
      "id": "cordova-plugin-advanced-http.http-proxy",
      "pluginId": "cordova-plugin-advanced-http",
      "runs": true
    },
    {
      "file": "plugins/cordova-plugin-inappbrowser/www/inappbrowser.js",
      "id": "cordova-plugin-inappbrowser.inappbrowser",
      "pluginId": "cordova-plugin-inappbrowser",
      "clobbers": [
        "cordova.InAppBrowser.open"
      ]
    },
    {
      "file": "plugins/cordova-plugin-inappbrowser/src/browser/InAppBrowserProxy.js",
      "id": "cordova-plugin-inappbrowser.InAppBrowserProxy",
      "pluginId": "cordova-plugin-inappbrowser",
      "runs": true
    },
    {
      "file": "plugins/cordova-plugin-googlemaps/www/Promise.js",
      "id": "cordova-plugin-googlemaps.Promise",
      "pluginId": "cordova-plugin-googlemaps"
    },
    {
      "file": "plugins/cordova-plugin-googlemaps/www/BaseClass.js",
      "id": "cordova-plugin-googlemaps.BaseClass",
      "pluginId": "cordova-plugin-googlemaps",
      "runs": true
    },
    {
      "file": "plugins/cordova-plugin-googlemaps/www/BaseArrayClass.js",
      "id": "cordova-plugin-googlemaps.BaseArrayClass",
      "pluginId": "cordova-plugin-googlemaps",
      "runs": true
    },
    {
      "file": "plugins/cordova-plugin-googlemaps/www/LatLng.js",
      "id": "cordova-plugin-googlemaps.LatLng",
      "pluginId": "cordova-plugin-googlemaps",
      "runs": true
    },
    {
      "file": "plugins/cordova-plugin-googlemaps/www/LatLngBounds.js",
      "id": "cordova-plugin-googlemaps.LatLngBounds",
      "pluginId": "cordova-plugin-googlemaps",
      "runs": true
    },
    {
      "file": "plugins/cordova-plugin-googlemaps/www/VisibleRegion.js",
      "id": "cordova-plugin-googlemaps.VisibleRegion",
      "pluginId": "cordova-plugin-googlemaps",
      "runs": true
    },
    {
      "file": "plugins/cordova-plugin-googlemaps/www/Location.js",
      "id": "cordova-plugin-googlemaps.Location",
      "pluginId": "cordova-plugin-googlemaps",
      "runs": true
    },
    {
      "file": "plugins/cordova-plugin-googlemaps/www/CameraPosition.js",
      "id": "cordova-plugin-googlemaps.CameraPosition",
      "pluginId": "cordova-plugin-googlemaps",
      "runs": true
    },
    {
      "file": "plugins/cordova-plugin-googlemaps/www/Polyline.js",
      "id": "cordova-plugin-googlemaps.Polyline",
      "pluginId": "cordova-plugin-googlemaps",
      "runs": true
    },
    {
      "file": "plugins/cordova-plugin-googlemaps/www/Polygon.js",
      "id": "cordova-plugin-googlemaps.Polygon",
      "pluginId": "cordova-plugin-googlemaps",
      "runs": true
    },
    {
      "file": "plugins/cordova-plugin-googlemaps/www/Marker.js",
      "id": "cordova-plugin-googlemaps.Marker",
      "pluginId": "cordova-plugin-googlemaps",
      "runs": true
    },
    {
      "file": "plugins/cordova-plugin-googlemaps/www/HtmlInfoWindow.js",
      "id": "cordova-plugin-googlemaps.HtmlInfoWindow",
      "pluginId": "cordova-plugin-googlemaps",
      "runs": true
    },
    {
      "file": "plugins/cordova-plugin-googlemaps/www/Circle.js",
      "id": "cordova-plugin-googlemaps.Circle",
      "pluginId": "cordova-plugin-googlemaps",
      "runs": true
    },
    {
      "file": "plugins/cordova-plugin-googlemaps/www/TileOverlay.js",
      "id": "cordova-plugin-googlemaps.TileOverlay",
      "pluginId": "cordova-plugin-googlemaps",
      "runs": true
    },
    {
      "file": "plugins/cordova-plugin-googlemaps/www/GroundOverlay.js",
      "id": "cordova-plugin-googlemaps.GroundOverlay",
      "pluginId": "cordova-plugin-googlemaps",
      "runs": true
    },
    {
      "file": "plugins/cordova-plugin-googlemaps/www/Common.js",
      "id": "cordova-plugin-googlemaps.Common",
      "pluginId": "cordova-plugin-googlemaps",
      "runs": true
    },
    {
      "file": "plugins/cordova-plugin-googlemaps/www/encoding.js",
      "id": "cordova-plugin-googlemaps.encoding",
      "pluginId": "cordova-plugin-googlemaps",
      "runs": true
    },
    {
      "file": "plugins/cordova-plugin-googlemaps/www/spherical.js",
      "id": "cordova-plugin-googlemaps.spherical",
      "pluginId": "cordova-plugin-googlemaps",
      "runs": true
    },
    {
      "file": "plugins/cordova-plugin-googlemaps/www/poly.js",
      "id": "cordova-plugin-googlemaps.poly",
      "pluginId": "cordova-plugin-googlemaps",
      "runs": true
    },
    {
      "file": "plugins/cordova-plugin-googlemaps/www/Geocoder.js",
      "id": "cordova-plugin-googlemaps.Geocoder",
      "pluginId": "cordova-plugin-googlemaps",
      "runs": true
    },
    {
      "file": "plugins/cordova-plugin-googlemaps/www/LocationService.js",
      "id": "cordova-plugin-googlemaps.LocationService",
      "pluginId": "cordova-plugin-googlemaps",
      "runs": true
    },
    {
      "file": "plugins/cordova-plugin-googlemaps/www/ElevationService.js",
      "id": "cordova-plugin-googlemaps.ElevationService",
      "pluginId": "cordova-plugin-googlemaps",
      "runs": true
    },
    {
      "file": "plugins/cordova-plugin-googlemaps/www/DirectionsService.js",
      "id": "cordova-plugin-googlemaps.DirectionsService",
      "pluginId": "cordova-plugin-googlemaps",
      "runs": true
    },
    {
      "file": "plugins/cordova-plugin-googlemaps/www/DirectionsRenderer.js",
      "id": "cordova-plugin-googlemaps.DirectionsRenderer",
      "pluginId": "cordova-plugin-googlemaps",
      "runs": true
    },
    {
      "file": "plugins/cordova-plugin-googlemaps/www/Map.js",
      "id": "cordova-plugin-googlemaps.Map",
      "pluginId": "cordova-plugin-googlemaps",
      "runs": true
    },
    {
      "file": "plugins/cordova-plugin-googlemaps/www/event.js",
      "id": "cordova-plugin-googlemaps.event",
      "pluginId": "cordova-plugin-googlemaps",
      "runs": true
    },
    {
      "file": "plugins/cordova-plugin-googlemaps/www/MapTypeId.js",
      "id": "cordova-plugin-googlemaps.MapTypeId",
      "pluginId": "cordova-plugin-googlemaps",
      "runs": true
    },
    {
      "file": "plugins/cordova-plugin-googlemaps/www/KmlOverlay.js",
      "id": "cordova-plugin-googlemaps.KmlOverlay",
      "pluginId": "cordova-plugin-googlemaps",
      "runs": true
    },
    {
      "file": "plugins/cordova-plugin-googlemaps/www/KmlLoader.js",
      "id": "cordova-plugin-googlemaps.KmlLoader",
      "pluginId": "cordova-plugin-googlemaps",
      "runs": true
    },
    {
      "file": "plugins/cordova-plugin-googlemaps/www/Environment.js",
      "id": "cordova-plugin-googlemaps.Environment",
      "pluginId": "cordova-plugin-googlemaps",
      "runs": true
    },
    {
      "file": "plugins/cordova-plugin-googlemaps/www/MarkerCluster.js",
      "id": "cordova-plugin-googlemaps.MarkerCluster",
      "pluginId": "cordova-plugin-googlemaps",
      "runs": true
    },
    {
      "file": "plugins/cordova-plugin-googlemaps/www/Cluster.js",
      "id": "cordova-plugin-googlemaps.Cluster",
      "pluginId": "cordova-plugin-googlemaps",
      "runs": true
    },
    {
      "file": "plugins/cordova-plugin-googlemaps/www/geomodel.js",
      "id": "cordova-plugin-googlemaps.geomodel",
      "pluginId": "cordova-plugin-googlemaps",
      "runs": true
    },
    {
      "file": "plugins/cordova-plugin-googlemaps/www/commandQueueExecutor.js",
      "id": "cordova-plugin-googlemaps.commandQueueExecutor",
      "pluginId": "cordova-plugin-googlemaps",
      "runs": true
    },
    {
      "file": "plugins/cordova-plugin-googlemaps/www/pluginInit.js",
      "id": "cordova-plugin-googlemaps.pluginInit",
      "pluginId": "cordova-plugin-googlemaps",
      "runs": true
    },
    {
      "file": "plugins/cordova-plugin-googlemaps/www/StreetViewPanorama.js",
      "id": "cordova-plugin-googlemaps.StreetViewPanorama",
      "pluginId": "cordova-plugin-googlemaps",
      "runs": true
    },
    {
      "file": "plugins/cordova-plugin-googlemaps/www/Overlay.js",
      "id": "cordova-plugin-googlemaps.Overlay",
      "pluginId": "cordova-plugin-googlemaps",
      "runs": true
    },
    {
      "file": "plugins/cordova-plugin-googlemaps/www/Thread.js",
      "id": "cordova-plugin-googlemaps.Thread",
      "pluginId": "cordova-plugin-googlemaps",
      "runs": true
    },
    {
      "file": "plugins/cordova-plugin-googlemaps/www/InlineWorker.js",
      "id": "cordova-plugin-googlemaps.InlineWorker",
      "pluginId": "cordova-plugin-googlemaps",
      "runs": true
    },
    {
      "file": "plugins/cordova-plugin-googlemaps/www/plugin-loader-for-browser.js",
      "id": "cordova-plugin-googlemaps.googlemaps-cdv-plugin",
      "pluginId": "cordova-plugin-googlemaps",
      "clobbers": [
        "plugin.google.maps"
      ]
    },
    {
      "file": "plugins/cordova-plugin-googlemaps/www/js_CordovaGoogleMaps-for-browser.js",
      "id": "cordova-plugin-googlemaps.js_CordovaGoogleMaps",
      "pluginId": "cordova-plugin-googlemaps",
      "runs": true
    },
    {
      "file": "plugins/cordova-plugin-googlemaps/src/browser/CordovaGoogleMaps.js",
      "id": "cordova-plugin-googlemaps.CordovaGoogleMaps",
      "pluginId": "cordova-plugin-googlemaps",
      "runs": true
    },
    {
      "file": "plugins/cordova-plugin-googlemaps/src/browser/PluginMap.js",
      "id": "cordova-plugin-googlemaps.PluginMap",
      "pluginId": "cordova-plugin-googlemaps",
      "runs": true
    },
    {
      "file": "plugins/cordova-plugin-googlemaps/src/browser/PluginMarker.js",
      "id": "cordova-plugin-googlemaps.PluginMarker",
      "pluginId": "cordova-plugin-googlemaps",
      "runs": true
    },
    {
      "file": "plugins/cordova-plugin-googlemaps/src/browser/PluginCircle.js",
      "id": "cordova-plugin-googlemaps.PluginCircle",
      "pluginId": "cordova-plugin-googlemaps",
      "runs": true
    },
    {
      "file": "plugins/cordova-plugin-googlemaps/src/browser/PluginGroundOverlay.js",
      "id": "cordova-plugin-googlemaps.PluginGroundOverlay",
      "pluginId": "cordova-plugin-googlemaps",
      "runs": true
    },
    {
      "file": "plugins/cordova-plugin-googlemaps/src/browser/PluginKmlOverlay.js",
      "id": "cordova-plugin-googlemaps.PluginKmlOverlay",
      "pluginId": "cordova-plugin-googlemaps",
      "runs": true
    },
    {
      "file": "plugins/cordova-plugin-googlemaps/src/browser/PluginMarkerCluster.js",
      "id": "cordova-plugin-googlemaps.PluginMarkerCluster",
      "pluginId": "cordova-plugin-googlemaps",
      "runs": true
    },
    {
      "file": "plugins/cordova-plugin-googlemaps/src/browser/PluginPolygon.js",
      "id": "cordova-plugin-googlemaps.PluginPolygon",
      "pluginId": "cordova-plugin-googlemaps",
      "runs": true
    },
    {
      "file": "plugins/cordova-plugin-googlemaps/src/browser/PluginPolyline.js",
      "id": "cordova-plugin-googlemaps.PluginPolyline",
      "pluginId": "cordova-plugin-googlemaps",
      "runs": true
    },
    {
      "file": "plugins/cordova-plugin-googlemaps/src/browser/PluginStreetViewPanorama.js",
      "id": "cordova-plugin-googlemaps.PluginStreetViewPanorama",
      "pluginId": "cordova-plugin-googlemaps",
      "runs": true
    },
    {
      "file": "plugins/cordova-plugin-googlemaps/src/browser/PluginTileOverlay.js",
      "id": "cordova-plugin-googlemaps.PluginTileOverlay",
      "pluginId": "cordova-plugin-googlemaps",
      "runs": true
    },
    {
      "file": "plugins/cordova-plugin-googlemaps/src/browser/PluginLocationService.js",
      "id": "cordova-plugin-googlemaps.PluginLocationService",
      "pluginId": "cordova-plugin-googlemaps",
      "runs": true
    },
    {
      "file": "plugins/cordova-plugin-googlemaps/src/browser/PluginElevationService.js",
      "id": "cordova-plugin-googlemaps.PluginElevationService",
      "pluginId": "cordova-plugin-googlemaps",
      "runs": true
    },
    {
      "file": "plugins/cordova-plugin-googlemaps/src/browser/PluginDirectionsService.js",
      "id": "cordova-plugin-googlemaps.PluginDirectionsService",
      "pluginId": "cordova-plugin-googlemaps",
      "runs": true
    },
    {
      "file": "plugins/cordova-plugin-googlemaps/src/browser/PluginGeocoder.js",
      "id": "cordova-plugin-googlemaps.PluginGeocoder",
      "pluginId": "cordova-plugin-googlemaps",
      "runs": true
    },
    {
      "file": "plugins/cordova-plugin-googlemaps/src/browser/PluginEnvironment.js",
      "id": "cordova-plugin-googlemaps.PluginEnvironment",
      "pluginId": "cordova-plugin-googlemaps",
      "runs": true
    },
    {
      "file": "plugins/cordova-plugin-facebook4/www/facebook-browser.js",
      "id": "cordova-plugin-facebook4.FacebookConnectPluginBrowser",
      "pluginId": "cordova-plugin-facebook4",
      "clobbers": [
        "facebookConnectPlugin"
      ]
    }
  ],
  "plugin_metadata": {
    "cordova-plugin-whitelist": "1.3.4",
    "cordova-plugin-statusbar": "2.4.3",
    "cordova-plugin-device": "2.0.3",
    "cordova-plugin-splashscreen": "5.0.4",
    "cordova-plugin-ionic-webview": "2.5.3",
    "cordova-plugin-ionic-keyboard": "2.2.0",
    "cordova-plugin-email-composer": "0.9.2",
    "cordova-plugin-file-opener2": "3.0.5",
    "cordova-plugin-file": "6.0.2",
    "cordova-plugin-network-information": "2.0.2",
    "cordova-plugin-nativestorage": "2.3.2",
    "cordova-sqlite-storage": "5.1.0",
    "cordova-plugin-x-toast": "2.7.2",
    "cordova-pdf-generator": "2.1.1",
    "cordova-plugin-advanced-http": "3.1.0",
    "cordova-plugin-inappbrowser": "4.1.0",
    "cordova-plugin-googlemaps": "2.8.0-20200709-2008",
    "cordova-plugin-geolocation": "4.1.0",
    "cordova-plugin-facebook4": "6.4.0"
  }
}
